{
  "android": {
    "background_color": {
      "angle": 180,
      "colors": [
        "ffffffff",
        "bfbff5ff",
        "bfbff5ff",
        "bfbff5ff",
        "bfbff5ff"
      ],
      "cs": [
        0,
        90,
        95,
        96,
        96
      ],
      "gradientType": "toBottom",
      "gt": "linear"
    },
    "background_style": "linear",
    "bg_type": "ms_gradient",
    "border_color": "00000000",
    "border_style": "custom",
    "border_type": 0,
    "border_width": 96,
    "bottom_left_border_radius": 5,
    "bottom_right_border_radius": 5,
    "font_name": "default",
    "isForked": true,
    "top_left_border_radius": 5,
    "top_right_border_radius": 5
  },
  "androidwearos": {
    "background_color": {
      "angle": 180,
      "colors": [
        "ffffffff",
        "bfbff5ff",
        "bfbff5ff",
        "bfbff5ff",
        "bfbff5ff"
      ],
      "cs": [
        0,
        90,
        95,
        96,
        96
      ],
      "gradientType": "toBottom",
      "gt": "linear"
    },
    "background_style": "linear",
    "bg_type": "ms_gradient",
    "border_color": "00000000",
    "border_style": "custom",
    "border_type": 0,
    "border_width": 96,
    "bottom_left_border_radius": 5,
    "bottom_right_border_radius": 5,
    "font_name": "default",
    "isForked": true,
    "top_left_border_radius": 5,
    "top_right_border_radius": 5
  },
  "background_color": "00000000",
  "bg_type": "one",
  "border_color": "000000ff",
  "border_style": "plain",
  "border_type": 0,
  "border_width": 0,
  "desktopweb": {
    "background_color": {
      "angle": 180,
      "colors": [
        "ffffffff",
        "bfbff5ff",
        "bfbff5ff",
        "bfbff5ff",
        "bfbff5ff"
      ],
      "cs": [
        0,
        90,
        95,
        96,
        96
      ],
      "gradientType": "toBottom",
      "gt": "linear"
    },
    "background_style": "linear",
    "bg_type": "ms_gradient",
    "font_name": "Helvetica",
    "isForked": true
  },
  "ipad": {
    "background_color": {
      "angle": 180,
      "colors": [
        "ffffffff",
        "bfbff5ff",
        "bfbff5ff",
        "bfbff5ff",
        "bfbff5ff"
      ],
      "cs": [
        0,
        90,
        95,
        96,
        96
      ],
      "gradientType": "toBottom",
      "gt": "linear"
    },
    "background_style": "linear",
    "bg_type": "ms_gradient",
    "border_color": "00000000",
    "border_radius": 0,
    "border_style": "custom",
    "border_type": 0,
    "border_width": 96,
    "font_name": "System",
    "isForked": true
  },
  "iphone": {
    "background_color": {
      "angle": 180,
      "colors": [
        "ffffffff",
        "bfbff5ff",
        "bfbff5ff",
        "bfbff5ff",
        "bfbff5ff"
      ],
      "cs": [
        0,
        90,
        95,
        96,
        96
      ],
      "gradientType": "toBottom",
      "gt": "linear"
    },
    "background_style": "linear",
    "bg_type": "ms_gradient",
    "border_color": "00000000",
    "border_radius": 0,
    "border_style": "custom",
    "border_type": 0,
    "border_width": 96,
    "font_name": "System",
    "isForked": true
  },
  "isDefaultSkin": false,
  "kiosk": {
    "background_color": {
      "angle": 180,
      "colors": [
        "ffffffff",
        "bfbff5ff",
        "bfbff5ff",
        "bfbff5ff",
        "bfbff5ff"
      ],
      "cs": [
        0,
        90,
        95,
        96,
        96
      ],
      "gradientType": "toBottom",
      "gt": "linear"
    },
    "background_style": "linear",
    "bg_type": "ms_gradient",
    "border_color": "00000000",
    "border_radius": 0,
    "border_style": "custom",
    "border_type": 0,
    "border_width": 96,
    "font_name": "None",
    "isForked": true
  },
  "kuid": "s6cbbbc191e746a6b46ea6a85bbd1f29",
  "spaan": {
    "background_color": {
      "angle": 180,
      "colors": [
        "ffffffff",
        "bfbff5ff",
        "bfbff5ff",
        "bfbff5ff",
        "bfbff5ff"
      ],
      "cs": [
        0,
        90,
        95,
        96,
        96
      ],
      "gradientType": "toBottom",
      "gt": "linear"
    },
    "background_style": "linear",
    "bg_type": "ms_gradient",
    "font_name": "Helvetica",
    "isForked": true
  },
  "spaandroidtablet": {
    "background_color": {
      "angle": 180,
      "colors": [
        "ffffffff",
        "bfbff5ff",
        "bfbff5ff",
        "bfbff5ff",
        "bfbff5ff"
      ],
      "cs": [
        0,
        90,
        95,
        96,
        96
      ],
      "gradientType": "toBottom",
      "gt": "linear"
    },
    "background_style": "linear",
    "bg_type": "ms_gradient",
    "font_name": "Helvetica",
    "isForked": true
  },
  "spabb": {
    "background_color": {
      "angle": 180,
      "colors": [
        "ffffffff",
        "bfbff5ff",
        "bfbff5ff",
        "bfbff5ff",
        "bfbff5ff"
      ],
      "cs": [
        0,
        90,
        95,
        96,
        96
      ],
      "gradientType": "toBottom",
      "gt": "linear"
    },
    "background_style": "linear",
    "bg_type": "ms_gradient",
    "font_name": "Helvetica",
    "isForked": true
  },
  "spaip": {
    "background_color": {
      "angle": 180,
      "colors": [
        "ffffffff",
        "bfbff5ff",
        "bfbff5ff",
        "bfbff5ff",
        "bfbff5ff"
      ],
      "cs": [
        0,
        90,
        95,
        96,
        96
      ],
      "gradientType": "toBottom",
      "gt": "linear"
    },
    "background_style": "linear",
    "bg_type": "ms_gradient",
    "font_name": "Helvetica",
    "isForked": true
  },
  "spaipad": {
    "background_color": {
      "angle": 180,
      "colors": [
        "ffffffff",
        "bfbff5ff",
        "bfbff5ff",
        "bfbff5ff",
        "bfbff5ff"
      ],
      "cs": [
        0,
        90,
        95,
        96,
        96
      ],
      "gradientType": "toBottom",
      "gt": "linear"
    },
    "background_style": "linear",
    "bg_type": "ms_gradient",
    "font_name": "Helvetica",
    "isForked": true
  },
  "spawindowstablet": {
    "background_color": {
      "angle": 180,
      "colors": [
        "ffffffff",
        "bfbff5ff",
        "bfbff5ff",
        "bfbff5ff",
        "bfbff5ff"
      ],
      "cs": [
        0,
        90,
        95,
        96,
        96
      ],
      "gradientType": "toBottom",
      "gt": "linear"
    },
    "background_style": "linear",
    "bg_type": "ms_gradient",
    "font_name": "Helvetica",
    "isForked": true
  },
  "spawinphone8": {
    "background_color": {
      "angle": 180,
      "colors": [
        "ffffffff",
        "bfbff5ff",
        "bfbff5ff",
        "bfbff5ff",
        "bfbff5ff"
      ],
      "cs": [
        0,
        90,
        95,
        96,
        96
      ],
      "gradientType": "toBottom",
      "gt": "linear"
    },
    "background_style": "linear",
    "bg_type": "ms_gradient",
    "font_name": "Helvetica",
    "isForked": true
  },
  "tabrcandroid": {
    "background_color": {
      "angle": 180,
      "colors": [
        "ffffffff",
        "bfbff5ff",
        "bfbff5ff",
        "bfbff5ff",
        "bfbff5ff"
      ],
      "cs": [
        0,
        90,
        95,
        96,
        96
      ],
      "gradientType": "toBottom",
      "gt": "linear"
    },
    "background_style": "linear",
    "bg_type": "ms_gradient",
    "border_color": "00000000",
    "border_style": "custom",
    "border_type": 0,
    "border_width": 96,
    "bottom_left_border_radius": 5,
    "bottom_right_border_radius": 5,
    "font_name": "default",
    "isForked": true,
    "top_left_border_radius": 5,
    "top_right_border_radius": 5
  },
  "wType": "Segment",
  "watchos": {
    "font_name": "System"
  },
  "windows8": {
    "background_color": {
      "angle": 180,
      "colors": [
        "ffffffff",
        "bfbff5ff",
        "bfbff5ff",
        "bfbff5ff",
        "bfbff5ff"
      ],
      "cs": [
        0,
        90,
        95,
        96,
        96
      ],
      "gradientType": "toBottom",
      "gt": "linear"
    },
    "background_style": "linear",
    "bg_type": "ms_gradient",
    "border_color": "00000000",
    "border_style": "custom",
    "border_type": 0,
    "border_width": 96,
    "bottom_left_border_radius": 5,
    "bottom_right_border_radius": 5,
    "font_name": "None",
    "isForked": true,
    "top_left_border_radius": 5,
    "top_right_border_radius": 5
  },
  "winphone8": {
    "background_color": {
      "angle": 180,
      "colors": [
        "ffffffff",
        "bfbff5ff",
        "bfbff5ff",
        "bfbff5ff",
        "bfbff5ff"
      ],
      "cs": [
        0,
        90,
        95,
        96,
        96
      ],
      "gradientType": "toBottom",
      "gt": "linear"
    },
    "background_style": "linear",
    "bg_type": "ms_gradient",
    "border_color": "00000000",
    "border_style": "custom",
    "border_type": 0,
    "border_width": 96,
    "bottom_left_border_radius": 5,
    "bottom_right_border_radius": 5,
    "font_name": "None",
    "isForked": true,
    "top_left_border_radius": 5,
    "top_right_border_radius": 5
  }
}