{
    "@class": "com.kony.gen.viz.model.component.KVizRichText",
    "DNDConfig": null,
    "__parentReadjusting__": false,
    "_height_": {
        "type": "ref",
        "value": "preferred"
    },
    "_left_": {
        "type": "string",
        "value": "2%"
    },
    "_margin_": [
        0,
        0,
        0,
        0
    ],
    "_padding_": [
        0,
        0,
        0,
        0
    ],
    "_skin_": "s7bfbf15e99c4d728c2401d0d82cacc8",
    "_text_": "Contact name <label style=\\\"color:#FF0000\\\">*</label>\n",
    "_top_": {
        "type": "string",
        "value": "5%"
    },
    "_width_": {
        "type": "ref",
        "value": "preferred"
    },
    "_wrapping_": 2,
    "canUpdateUI": true,
    "centery": {
        "type": "string",
        "value": "50%"
    },
    "containerweight": 100,
    "contentalignment": 4,
    "id": "CopyrchClientType0c1c75664579a47",
    "info": null,
    "iscustomlayout": false,
    "isvisible": true,
    "kuid": "d9bfcce1789f47ce80b51eb761dc9d5f",
    "linkskin": "s3f2f0fdd446473ab9319754ccea7f3d",
    "name": "kony.ui.RichText",
    "parent": "CopyflxClientType0c76bcf5b59c44c",
    "pf": "frmProspectDetail",
    "retaincontentalignment": false,
    "retainflexpositionproperties": false,
    "wType": "RichText",
    "widgetalignment": 5,
    "zindex": 1
}