{
    "DNDConfig": null,
    "__parentReadjusting__": false,
    "_height_": {
        "type": "string",
        "value": "10%"
    },
    "_left_": {
        "type": "string",
        "value": "0%"
    },
    "_margin_": [
        0,
        0,
        0,
        0
    ],
    "_orientation_": 6,
    "_padding_": [
        0,
        0,
        0,
        0
    ],
    "_percent_": true,
    "_skin_": "sb6c97674dcb4795a7684088936b0351",
    "_top_": {
        "type": "string",
        "value": "2%"
    },
    "_width_": {
        "type": "string",
        "value": "100%"
    },
    "allboxes": [],
    "autogrowmode": 0,
    "canUpdateUI": true,
    "children": [
        "CopyrchAgencyName0g28b6503235246",
        "CopytxtAgencyName0gc0e73e7713d48"
    ],
    "clipbounds": true,
    "containerweight": 100,
    "enablescrolling": true,
    "id": "CopyflxAgencyName0abfd0186c8db41",
    "info": null,
    "iscustomlayout": false,
    "isvisible": true,
    "kuid": "eda4de835ece43289fd164c3ac28a505",
    "layouttype": 2,
    "name": "kony.ui.FlexContainer",
    "parent": "flxLocationInfo",
    "pf": "frmProspectDetail",
    "retaincontentalignment": false,
    "retainflexpositionproperties": false,
    "snapgridsize": 10,
    "snaptogrid": true,
    "wType": "FlexContainer",
    "widgetalignment": 1,
    "zindex": 1
}