{
    "@class": "com.kony.gen.viz.model.component.KVizButton",
    "DNDConfig": null,
    "__parentReadjusting__": false,
    "_bottom_": {
        "type": "string",
        "value": "2%"
    },
    "_height_": {
        "type": "string",
        "value": "25dp"
    },
    "_margin_": [
        6,
        6,
        6,
        6
    ],
    "_padding_": [
        0,
        0,
        0,
        0
    ],
    "_skin_": "s82f9f53fc714d00b81f9d8431abf418",
    "_text_": "New Prospect",
    "_width_": {
        "type": "string",
        "value": "23%"
    },
    "canUpdateUI": true,
    "centerx": {
        "type": "string",
        "value": "50%"
    },
    "containerweight": 100,
    "contentalignment": 5,
    "displaytext": true,
    "focusskin": "s82f9f53fc714d00b81f9d8431abf418",
    "id": "btnNewProspectus",
    "info": null,
    "iscustomlayout": false,
    "isvisible": true,
    "kuid": "df794e89b50e4f2b89a884b7ac933797",
    "name": "kony.ui.Button",
    "parent": "flxProspectContent",
    "pf": "frmProspectPipeLine",
    "retaincontentalignment": false,
    "retainflexpositionproperties": false,
    "wType": "Button",
    "zindex": 1
}