{
    "DNDConfig": null,
    "__parentReadjusting__": false,
    "_height_": {
        "type": "string",
        "value": "100%"
    },
    "_left_": {
        "type": "string",
        "value": "50dp"
    },
    "_margin_": [
        0,
        0,
        0,
        0
    ],
    "_orientation_": 6,
    "_padding_": [
        0,
        0,
        0,
        0
    ],
    "_percent_": true,
    "_skin_": "sb6c97674dcb4795a7684088936b0351",
    "_top_": {
        "type": "string",
        "value": "0dp"
    },
    "_width_": {
        "type": "string",
        "value": "91%"
    },
    "allboxes": [],
    "autogrowmode": 0,
    "canUpdateUI": true,
    "children": [
        "img1",
        "lbl1",
        "img2",
        "lbl2",
        "img3",
        "lbl3",
        "img4",
        "lbl4",
        "img5",
        "lbl5",
        "img6",
        "lbl6"
    ],
    "clipbounds": true,
    "containerweight": 100,
    "enablescrolling": true,
    "id": "flxKeyViewContent",
    "info": null,
    "iscustomlayout": false,
    "isvisible": true,
    "kuid": "j4811784cc804f9ebffac99da713f0f1",
    "layouttype": 3,
    "name": "kony.ui.FlexContainer",
    "parent": "flxKeyContent",
    "pf": "frmProspectPipeLine",
    "retaincontentalignment": false,
    "retainflexpositionproperties": false,
    "snapgridsize": 10,
    "snaptogrid": true,
    "wType": "FlexContainer",
    "widgetalignment": 1,
    "zindex": 1
}