{
    "DNDConfig": null,
    "_height_": {
        "type": "string",
        "value": "50dp"
    },
    "_left_": {
        "type": "string",
        "value": "0dp"
    },
    "_margin_": [
        0,
        0,
        0,
        0
    ],
    "_orientation_": 6,
    "_padding_": [
        0,
        0,
        0,
        0
    ],
    "_percent_": true,
    "_skin_": "s9f0c0eb90c24a518fe4efa0954d88f8",
    "_top_": {
        "type": "string",
        "value": "0dp"
    },
    "_width_": {
        "type": "string",
        "value": "100%"
    },
    "allboxes": [],
    "autogrowmode": 0,
    "canUpdateUI": true,
    "children": [
        "flxSection1",
        "flxSection2",
        "flxSection3",
        "flxSection4"
    ],
    "clipbounds": false,
    "containerId": true,
    "containerweight": 100,
    "controllerInfo": {
        "default": {
            "channel": "tablet",
            "name": "flxProspectController"
        }
    },
    "disabledSkins": {},
    "enablescrolling": true,
    "focusskin": "sbd44a670fd841439eea57720ecc5845",
    "friendlyName": "flxProspect",
    "id": "flxProspect",
    "info": null,
    "isTemplate": true,
    "iscustomlayout": false,
    "isvisible": true,
    "kuid": "f222c53ad39a48129064161945ec0aed",
    "layouttype": 3,
    "name": "kony.ui.FlexContainer",
    "parent": "tempProspect",
    "pf": "tempProspect",
    "retaincontentalignment": false,
    "retainflexpositionproperties": false,
    "snapgridsize": 10,
    "snaptogrid": true,
    "wType": "FlexContainer",
    "widgetalignment": 1
}